^D:\MASTERINGDATASTRUCTURES\BFSDFS\BFSDFS.CPP
D:\MASTERINGDATASTRUCTURES\BFSDFS\DEBUG\VC142.PDB
D:\MASTERINGDATASTRUCTURES\BFSDFS\DEBUG\VC142.IDB
D:\MASTERINGDATASTRUCTURES\BFSDFS\DEBUG\BFSDFS.OBJ
